# Blender v2.79 (sub 0) OBJ File: 'mesa.blend'
# www.blender.org
mtllib mesasa.mtl.mtl
o Cube_Cube.001
v -0.375000 0.991904 0.800000
v -0.375000 1.031904 0.800000
v -0.375000 0.991904 -0.800000
v -0.375000 1.031904 -0.800000
v 0.375000 0.991904 0.800000
v 0.375000 1.031904 0.800000
v 0.375000 0.991904 -0.800000
v 0.375000 1.031904 -0.800000
vn -1.0000 0.0000 0.0000
vn 0.0000 0.0000 -1.0000
vn 1.0000 0.0000 0.0000
vn 0.0000 0.0000 1.0000
vn 0.0000 -1.0000 0.0000
vn 0.0000 1.0000 0.0000
usemtl Material.001
s off
f 1//1 2//1 4//1 3//1
f 3//2 4//2 8//2 7//2
f 7//3 8//3 6//3 5//3
f 5//4 6//4 2//4 1//4
f 3//5 7//5 5//5 1//5
f 8//6 4//6 2//6 6//6
o Plane.001
v 0.350000 0.098682 0.750000
v -0.350000 0.098682 0.750000
v 0.318805 0.178899 0.671749
v -0.318805 0.178899 0.671749
v 0.342860 0.117043 0.750000
v -0.342860 0.117043 0.750000
v 0.318805 0.178899 0.653279
v -0.318805 0.178899 0.653279
v 0.350000 0.098682 0.653279
v -0.350000 0.098682 0.653279
v 0.342860 0.998682 0.750000
v 0.350000 0.998682 0.750000
v 0.318805 0.998682 0.671749
v 0.318805 0.998682 0.653279
v 0.350000 0.998682 0.653279
v -0.342860 0.998682 0.750000
v -0.350000 0.998682 0.750000
v -0.318805 0.998682 0.671749
v -0.318805 0.998682 0.653279
v -0.350000 0.998682 0.653279
v 0.350000 0.098682 -0.750000
v -0.350000 0.098682 -0.750000
v 0.318805 0.178899 -0.671749
v -0.318805 0.178899 -0.671749
v 0.342860 0.117043 -0.750000
v -0.342860 0.117043 -0.750000
v 0.318805 0.178899 -0.653279
v -0.318805 0.178899 -0.653279
v 0.350000 0.098682 -0.653279
v -0.350000 0.098682 -0.653279
v 0.342860 0.998682 -0.750000
v 0.350000 0.998682 -0.750000
v 0.318805 0.998682 -0.671749
v 0.318805 0.998682 -0.653279
v 0.350000 0.998682 -0.653279
v -0.342860 0.998682 -0.750000
v -0.350000 0.998682 -0.750000
v -0.318805 0.998682 -0.671749
v -0.318805 0.998682 -0.653279
v -0.350000 0.998682 -0.653279
vn 1.0000 0.0000 0.0000
vn 0.0000 0.0000 -1.0000
vn 0.0000 -0.7845 -0.6201
vn -0.9559 0.0000 -0.2938
vn 0.0000 -1.0000 0.0000
vn 0.0000 1.0000 -0.0000
vn -0.0000 0.0000 1.0000
vn -1.0000 0.0000 0.0000
vn 0.9559 0.0000 -0.2938
vn 0.0000 -0.7845 0.6201
vn -0.9559 0.0000 0.2938
vn 0.9559 0.0000 0.2938
usemtl Material.002
s off
f 21//7 11//7 15//7 22//7
f 14//8 13//8 9//8 10//8
f 24//8 14//8 10//8 25//8
f 12//9 11//9 13//9 14//9
f 26//10 12//10 14//10 24//10
f 25//7 10//7 18//7 28//7
f 11//11 12//11 16//11 15//11
f 10//12 9//12 17//12 18//12
f 27//13 28//13 18//13 16//13
f 16//13 18//13 17//13 15//13
f 15//13 17//13 23//13 22//13
f 9//14 20//14 23//14 17//14
f 11//15 21//15 19//15 13//15
f 13//8 19//8 20//8 9//8
f 12//14 26//14 27//14 16//14
f 41//7 42//7 35//7 31//7
f 34//13 30//13 29//13 33//13
f 44//13 45//13 30//13 34//13
f 32//16 34//16 33//16 31//16
f 46//17 44//17 34//17 32//17
f 45//7 48//7 38//7 30//7
f 31//11 35//11 36//11 32//11
f 30//12 38//12 37//12 29//12
f 47//8 36//8 38//8 48//8
f 36//8 35//8 37//8 38//8
f 35//8 42//8 43//8 37//8
f 29//14 37//14 43//14 40//14
f 31//18 33//18 39//18 41//18
f 33//13 29//13 40//13 39//13
f 32//14 36//14 47//14 46//14
