# Blender v2.79 (sub 0) OBJ File: 'PROBETA.blend'
# www.blender.org
mtllib PROBETA.mtl
o Cylinder.001
v 0.000000 0.136444 -1.000000
v -0.000000 9.996870 -1.086753
v 0.195090 0.136444 -0.980785
v 0.212015 9.996870 -1.065871
v 0.382683 0.136444 -0.923880
v 0.415882 9.996870 -1.004029
v 0.555570 0.136444 -0.831470
v 0.603768 9.996870 -0.903602
v 0.707107 0.136444 -0.707107
v 0.768450 9.996870 -0.768450
v 0.831470 0.136444 -0.555570
v 0.903602 9.996870 -0.603767
v 0.923880 0.136444 -0.382683
v 1.004029 9.996870 -0.415882
v 0.980785 0.136444 -0.195090
v 1.065871 9.996870 -0.212015
v 1.000000 0.136444 -0.000000
v 1.086753 9.996870 -0.000000
v 0.980785 0.136444 0.195090
v 1.065871 9.996870 0.212015
v 0.923880 0.136444 0.382683
v 1.004029 9.996870 0.415882
v 0.831470 0.136444 0.555570
v 0.903602 9.996870 0.603768
v 0.707107 0.136444 0.707107
v 0.768450 9.996870 0.768450
v 0.555570 0.136444 0.831470
v 0.603768 9.996870 0.903602
v 0.382683 0.136444 0.923880
v 0.415882 9.996870 1.004029
v 0.195090 0.136444 0.980785
v 0.212015 9.996870 1.065871
v -0.000000 0.136444 1.000000
v -0.000000 9.996870 1.086753
v -0.195091 0.136444 0.980785
v -0.212015 9.996870 1.065871
v -0.382684 0.136444 0.923879
v -0.415883 9.996870 1.004029
v -0.555571 0.136444 0.831469
v -0.603768 9.996870 0.903602
v -0.707107 0.136444 0.707106
v -0.768451 9.996870 0.768450
v -0.831470 0.136444 0.555570
v -0.999919 9.928343 0.603767
v -0.923880 0.136444 0.382683
v -1.113180 9.928343 0.415882
v -0.980785 0.136444 0.195089
v -1.182925 9.928343 0.212014
v -1.000000 0.136444 -0.000001
v -1.086753 9.996870 -0.000001
v -0.980785 0.136444 -0.195091
v -1.065871 9.996870 -0.212016
v -0.923879 0.136444 -0.382684
v -1.004028 9.996870 -0.415883
v -0.831469 0.136444 -0.555571
v -0.903601 9.996870 -0.603769
v -0.707106 0.136444 -0.707108
v -0.768449 9.996870 -0.768451
v -0.555569 0.136444 -0.831470
v -0.603766 9.996870 -0.903603
v -0.382682 0.136444 -0.923880
v -0.415881 9.996870 -1.004029
v -0.195089 0.136444 -0.980786
v -0.212013 9.996870 -1.065871
v 0.000000 1.840889 -1.000000
v 0.000000 2.826931 -1.000000
v 0.000000 3.812974 -1.000000
v 0.000000 4.799017 -1.000000
v 0.000000 5.785059 -1.000000
v 0.000000 6.771102 -1.000000
v 0.000000 7.757145 -1.000000
v 0.000000 8.743188 -1.000000
v 0.000000 9.729231 -1.000000
v 0.195090 9.729231 -0.980785
v 0.195090 8.743188 -0.980785
v 0.195090 7.757145 -0.980785
v 0.195090 6.771102 -0.980785
v 0.195090 5.785059 -0.980785
v 0.195090 4.799017 -0.980785
v 0.195090 3.812974 -0.980785
v 0.195090 2.826931 -0.980785
v 0.195090 1.840889 -0.980785
v 0.382683 9.729231 -0.923880
v 0.382683 8.743188 -0.923880
v 0.382683 7.757145 -0.923880
v 0.382683 6.771102 -0.923880
v 0.382683 5.785059 -0.923880
v 0.382683 4.799017 -0.923880
v 0.382683 3.812974 -0.923880
v 0.382683 2.826931 -0.923880
v 0.382683 1.840889 -0.923880
v 0.555570 9.729231 -0.831470
v 0.555570 8.743188 -0.831470
v 0.555570 7.757145 -0.831470
v 0.555570 6.771102 -0.831470
v 0.555570 5.785059 -0.831470
v 0.555570 4.799017 -0.831470
v 0.555570 3.812974 -0.831470
v 0.555570 2.826931 -0.831470
v 0.555570 1.840889 -0.831470
v 0.707107 9.729231 -0.707107
v 0.707107 8.743188 -0.707107
v 0.707107 7.757145 -0.707107
v 0.707107 6.771102 -0.707107
v 0.707107 5.785059 -0.707107
v 0.707107 4.799017 -0.707107
v 0.707107 3.812974 -0.707107
v 0.707107 2.826931 -0.707107
v 0.707107 1.840889 -0.707107
v 0.831470 9.729231 -0.555570
v 0.831470 8.743188 -0.555570
v 0.831470 7.757145 -0.555570
v 0.831470 6.771102 -0.555570
v 0.831470 5.785059 -0.555570
v 0.831470 4.799017 -0.555570
v 0.831470 3.812974 -0.555570
v 0.831470 2.826931 -0.555570
v 0.831470 1.840889 -0.555570
v 0.923880 9.729231 -0.382683
v 0.923880 8.743188 -0.382683
v 0.923880 7.757145 -0.382683
v 0.923880 6.771102 -0.382683
v 0.923880 5.785059 -0.382683
v 0.923880 4.799017 -0.382683
v 0.923880 3.812974 -0.382683
v 0.923880 2.826931 -0.382683
v 0.923880 1.840889 -0.382683
v 0.980785 9.729231 -0.195090
v 0.980785 8.743188 -0.195090
v 0.980785 7.757145 -0.195090
v 0.980785 6.771102 -0.195090
v 0.980785 5.785059 -0.195090
v 0.980785 4.799017 -0.195090
v 0.980785 3.812974 -0.195090
v 0.980785 2.826931 -0.195090
v 0.980785 1.840889 -0.195090
v 1.000000 9.729231 -0.000000
v 1.000000 8.743188 -0.000000
v 1.000000 7.757145 -0.000000
v 1.000000 6.771102 -0.000000
v 1.000000 5.785059 -0.000000
v 1.000000 4.799017 -0.000000
v 1.000000 3.812974 -0.000000
v 1.000000 2.826931 -0.000000
v 1.000000 1.840889 -0.000000
v 0.980785 9.729231 0.195090
v 0.980785 8.743188 0.195090
v 0.980785 7.757145 0.195090
v 0.980785 6.771102 0.195090
v 0.980785 5.785059 0.195090
v 0.980785 4.799017 0.195090
v 0.980785 3.812974 0.195090
v 0.980785 2.826931 0.195090
v 0.980785 1.840889 0.195090
v 0.923880 9.729231 0.382683
v 0.923880 8.743188 0.382683
v 0.923880 7.757145 0.382683
v 0.923880 6.771102 0.382683
v 0.923880 5.785059 0.382683
v 0.923880 4.799017 0.382683
v 0.923880 3.812974 0.382683
v 0.923880 2.826931 0.382683
v 0.923880 1.840889 0.382683
v 0.831470 9.729231 0.555570
v 0.831470 8.743188 0.555570
v 0.831470 7.757145 0.555570
v 0.831470 6.771102 0.555570
v 0.831470 5.785059 0.555570
v 0.831470 4.799017 0.555570
v 0.831470 3.812974 0.555570
v 0.831470 2.826931 0.555570
v 0.831470 1.840889 0.555570
v 0.707107 9.729231 0.707107
v 0.707107 8.743188 0.707107
v 0.707107 7.757145 0.707107
v 0.707107 6.771102 0.707107
v 0.707107 5.785059 0.707107
v 0.707107 4.799017 0.707107
v 0.707107 3.812974 0.707107
v 0.707107 2.826931 0.707107
v 0.707107 1.840889 0.707107
v 0.555570 9.729231 0.831470
v 0.555570 8.743188 0.831470
v 0.555570 7.757145 0.831470
v 0.555570 6.771102 0.831470
v 0.555570 5.785059 0.831470
v 0.555570 4.799017 0.831470
v 0.555570 3.812974 0.831470
v 0.555570 2.826931 0.831470
v 0.555570 1.840889 0.831470
v 0.382683 9.729231 0.923880
v 0.382683 8.743188 0.923880
v 0.382683 7.757145 0.923880
v 0.382683 6.771102 0.923880
v 0.382683 5.785059 0.923880
v 0.382683 4.799017 0.923880
v 0.382683 3.812974 0.923880
v 0.382683 2.826931 0.923880
v 0.382683 1.840889 0.923880
v 0.195090 9.729231 0.980785
v 0.195090 8.743188 0.980785
v 0.195090 7.757145 0.980785
v 0.195090 6.771102 0.980785
v 0.195090 5.785059 0.980785
v 0.195090 4.799017 0.980785
v 0.195090 3.812974 0.980785
v 0.195090 2.826931 0.980785
v 0.195090 1.840889 0.980785
v -0.000000 9.729231 1.000000
v -0.000000 8.743188 1.000000
v -0.000000 7.757145 1.000000
v -0.000000 6.771102 1.000000
v -0.000000 5.785059 1.000000
v -0.000000 4.799017 1.000000
v -0.000000 3.812974 1.000000
v -0.000000 2.826931 1.000000
v -0.000000 1.840889 1.000000
v -0.195091 9.729231 0.980785
v -0.195091 8.743188 0.980785
v -0.195091 7.757145 0.980785
v -0.195091 6.771102 0.980785
v -0.195091 5.785059 0.980785
v -0.195091 4.799017 0.980785
v -0.195091 3.812974 0.980785
v -0.195091 2.826931 0.980785
v -0.195091 1.840889 0.980785
v -0.382684 9.729231 0.923879
v -0.382684 8.743188 0.923879
v -0.382684 7.757145 0.923879
v -0.382684 6.771102 0.923879
v -0.382684 5.785059 0.923879
v -0.382684 4.799017 0.923879
v -0.382684 3.812974 0.923879
v -0.382684 2.826931 0.923879
v -0.382684 1.840889 0.923879
v -0.555571 9.729231 0.831469
v -0.555571 8.743188 0.831469
v -0.555571 7.757145 0.831469
v -0.555571 6.771102 0.831469
v -0.555571 5.785059 0.831469
v -0.555571 4.799017 0.831469
v -0.555571 3.812974 0.831469
v -0.555571 2.826931 0.831469
v -0.555571 1.840889 0.831469
v -0.707107 9.729231 0.707106
v -0.707107 8.743188 0.707106
v -0.707107 7.757145 0.707106
v -0.707107 6.771102 0.707106
v -0.707107 5.785059 0.707106
v -0.707107 4.799017 0.707106
v -0.707107 3.812974 0.707106
v -0.707107 2.826931 0.707106
v -0.707107 1.840889 0.707106
v -0.831470 9.729231 0.555570
v -0.831470 8.743188 0.555570
v -0.831470 7.757145 0.555570
v -0.831470 6.771102 0.555570
v -0.831470 5.785059 0.555570
v -0.831470 4.799017 0.555570
v -0.831470 3.812974 0.555570
v -0.831470 2.826931 0.555570
v -0.831470 1.840889 0.555570
v -0.923880 9.729231 0.382683
v -0.923880 8.743188 0.382683
v -0.923880 7.757145 0.382683
v -0.923880 6.771102 0.382683
v -0.923880 5.785059 0.382683
v -0.923880 4.799017 0.382683
v -0.923880 3.812974 0.382683
v -0.923880 2.826931 0.382683
v -0.923880 1.840889 0.382683
v -0.980785 9.729231 0.195089
v -0.980785 8.743188 0.195089
v -0.980785 7.757145 0.195089
v -0.980785 6.771102 0.195089
v -0.980785 5.785059 0.195089
v -0.980785 4.799017 0.195089
v -0.980785 3.812974 0.195089
v -0.980785 2.826931 0.195089
v -0.980785 1.840889 0.195089
v -1.000000 9.729231 -0.000001
v -1.000000 8.743188 -0.000001
v -1.000000 7.757145 -0.000001
v -1.000000 6.771102 -0.000001
v -1.000000 5.785059 -0.000001
v -1.000000 4.799017 -0.000001
v -1.000000 3.812974 -0.000001
v -1.000000 2.826931 -0.000001
v -1.000000 1.840889 -0.000001
v -0.980785 9.729231 -0.195091
v -0.980785 8.743188 -0.195091
v -0.980785 7.757145 -0.195091
v -0.980785 6.771102 -0.195091
v -0.980785 5.785059 -0.195091
v -0.980785 4.799017 -0.195091
v -0.980785 3.812974 -0.195091
v -0.980785 2.826931 -0.195091
v -0.980785 1.840889 -0.195091
v -0.923879 9.729231 -0.382684
v -0.923879 8.743188 -0.382684
v -0.923879 7.757145 -0.382684
v -0.923879 6.771102 -0.382684
v -0.923879 5.785059 -0.382684
v -0.923879 4.799017 -0.382684
v -0.923879 3.812974 -0.382684
v -0.923879 2.826931 -0.382684
v -0.923879 1.840889 -0.382684
v -0.831469 9.729231 -0.555571
v -0.831469 8.743188 -0.555571
v -0.831469 7.757145 -0.555571
v -0.831469 6.771102 -0.555571
v -0.831469 5.785059 -0.555571
v -0.831469 4.799017 -0.555571
v -0.831469 3.812974 -0.555571
v -0.831469 2.826931 -0.555571
v -0.831469 1.840889 -0.555571
v -0.707106 9.729231 -0.707108
v -0.707106 8.743188 -0.707108
v -0.707106 7.757145 -0.707108
v -0.707106 6.771102 -0.707108
v -0.707106 5.785059 -0.707108
v -0.707106 4.799017 -0.707108
v -0.707106 3.812974 -0.707108
v -0.707106 2.826931 -0.707108
v -0.707106 1.840889 -0.707108
v -0.555569 9.729231 -0.831470
v -0.555569 8.743188 -0.831470
v -0.555569 7.757145 -0.831470
v -0.555569 6.771102 -0.831470
v -0.555569 5.785059 -0.831470
v -0.555569 4.799017 -0.831470
v -0.555569 3.812974 -0.831470
v -0.555569 2.826931 -0.831470
v -0.555569 1.840889 -0.831470
v -0.382682 9.729231 -0.923880
v -0.382682 8.743188 -0.923880
v -0.382682 7.757145 -0.923880
v -0.382682 6.771102 -0.923880
v -0.382682 5.785059 -0.923880
v -0.382682 4.799017 -0.923880
v -0.382682 3.812974 -0.923880
v -0.382682 2.826931 -0.923880
v -0.382682 1.840889 -0.923880
v -0.195089 9.729231 -0.980786
v -0.195089 8.743188 -0.980786
v -0.195089 7.757145 -0.980786
v -0.195089 6.771102 -0.980786
v -0.195089 5.785059 -0.980786
v -0.195089 4.799017 -0.980786
v -0.195089 3.812974 -0.980786
v -0.195089 2.826931 -0.980786
v -0.195089 1.840889 -0.980786
v -0.000000 9.996870 -0.995797
v 0.194270 9.996870 -0.976663
v 0.381075 9.996870 -0.919996
v 0.553235 9.996870 -0.827975
v 0.704135 9.996870 -0.704135
v 0.827975 9.996870 -0.553235
v 0.919996 9.996870 -0.381075
v 0.976663 9.996870 -0.194270
v 0.995797 9.996870 -0.000000
v 0.976663 9.996870 0.194270
v 0.919997 9.996870 0.381075
v 0.827975 9.996870 0.553235
v 0.704135 9.996870 0.704135
v 0.553235 9.996870 0.827975
v 0.381075 9.996870 0.919997
v 0.194270 9.996870 0.976663
v -0.000000 9.996870 0.995797
v -0.194271 9.996870 0.976663
v -0.381075 9.996870 0.919996
v -0.553236 9.996870 0.827975
v -0.704135 9.996870 0.704134
v -0.914626 9.928343 0.553235
v -1.018408 9.928343 0.381074
v -1.082316 9.928343 0.194270
v -0.995797 9.996870 -0.000001
v -0.976663 9.996870 -0.194271
v -0.919996 9.996870 -0.381076
v -0.827974 9.996870 -0.553236
v -0.704134 9.996870 -0.704136
v -0.553234 9.996870 -0.827976
v -0.381074 9.996870 -0.919997
v -0.194269 9.996870 -0.976663
v -0.000000 9.910744 -0.995797
v 0.194270 9.910744 -0.976663
v 0.381075 9.910744 -0.919996
v 0.553235 9.910744 -0.827975
v 0.704135 9.910744 -0.704135
v 0.827975 9.910744 -0.553235
v 0.919996 9.910744 -0.381075
v 0.976663 9.910744 -0.194270
v 0.995797 9.910744 -0.000000
v 0.976663 9.910744 0.194270
v 0.919997 9.910744 0.381075
v 0.827975 9.910744 0.553235
v 0.704135 9.910744 0.704135
v 0.553235 9.910744 0.827975
v 0.381075 9.910744 0.919997
v 0.194270 9.910744 0.976663
v -0.000000 9.910744 0.995797
v -0.194271 9.910744 0.976663
v -0.381075 9.910744 0.919996
v -0.553236 9.910744 0.827975
v -0.704135 9.910744 0.704134
v -0.827975 9.910744 0.553235
v -0.919997 9.910744 0.381074
v -0.976663 9.910744 0.194270
v -0.995797 9.910744 -0.000001
v -0.976663 9.910744 -0.194271
v -0.919996 9.910744 -0.381076
v -0.827974 9.910744 -0.553236
v -0.704134 9.910744 -0.704136
v -0.553234 9.910744 -0.827976
v -0.381074 9.910744 -0.919997
v -0.194269 9.910744 -0.976663
v -0.000000 9.910744 -0.955243
v 0.194270 9.910744 -0.936888
v 0.381075 9.910744 -0.882529
v 0.553235 9.910744 -0.794255
v 0.704135 9.910744 -0.675459
v 0.827975 9.910744 -0.530704
v 0.919996 9.910744 -0.365556
v 0.976663 9.910744 -0.186359
v 0.995797 9.910744 -0.000000
v 0.976663 9.910744 0.186358
v 0.919997 9.910744 0.365555
v 0.827975 9.910744 0.530704
v 0.704135 9.910744 0.675459
v 0.553235 9.910744 0.794255
v 0.381075 9.910744 0.882529
v 0.194270 9.910744 0.936888
v -0.000000 9.910744 0.955243
v -0.194271 9.910744 0.936888
v -0.381075 9.910744 0.882529
v -0.553236 9.910744 0.794255
v -0.704135 9.910744 0.675458
v -0.827975 9.910744 0.530704
v -0.919997 9.910744 0.365555
v -0.976663 9.910744 0.186358
v -0.995797 9.910744 -0.000001
v -0.976663 9.910744 -0.186360
v -0.919996 9.910744 -0.365557
v -0.827974 9.910744 -0.530705
v -0.704134 9.910744 -0.675459
v -0.553234 9.910744 -0.794256
v -0.381074 9.910744 -0.882530
v -0.194269 9.910744 -0.936888
v -0.000000 9.803947 -0.924203
v 0.194270 9.803947 -0.906444
v 0.381075 9.803947 -0.853852
v 0.553235 9.803947 -0.768447
v 0.704135 9.803947 -0.653510
v 0.827975 9.803947 -0.513460
v 0.919996 9.803947 -0.353677
v 0.976663 9.803947 -0.180303
v 0.995797 9.803947 -0.000000
v 0.976663 9.803947 0.180303
v 0.919997 9.803947 0.353677
v 0.827975 9.803947 0.513460
v 0.704135 9.803947 0.653510
v 0.553235 9.803947 0.768447
v 0.381075 9.803947 0.853852
v 0.194270 9.803947 0.906445
v -0.000000 9.803947 0.924203
v -0.194271 9.803947 0.906445
v -0.381075 9.803947 0.853852
v -0.553236 9.803947 0.768446
v -0.704135 9.803947 0.653510
v -0.827975 9.803947 0.513459
v -0.919997 9.803947 0.353676
v -0.976663 9.803947 0.180302
v -0.995797 9.803947 -0.000001
v -0.976663 9.803947 -0.180304
v -0.919996 9.803947 -0.353678
v -0.827974 9.803947 -0.513461
v -0.704134 9.803947 -0.653511
v -0.553234 9.803947 -0.768447
v -0.381074 9.803947 -0.853853
v -0.194269 9.803947 -0.906445
v -0.000000 8.157205 -0.924203
v 0.194270 8.157205 -0.906444
v 0.381075 8.157205 -0.853852
v 0.553235 8.157205 -0.768447
v 0.704135 8.157205 -0.653510
v 0.827975 8.157205 -0.513460
v 0.919996 8.157205 -0.353677
v 0.976663 8.157205 -0.180303
v 0.995797 8.157205 -0.000000
v 0.976663 8.157205 0.180303
v 0.919997 8.157205 0.353677
v 0.827975 8.157205 0.513460
v 0.704135 8.157205 0.653510
v 0.553235 8.157205 0.768447
v 0.381075 8.157205 0.853852
v 0.194270 8.157205 0.906445
v -0.000000 8.157205 0.924203
v -0.194271 8.157205 0.906445
v -0.381075 8.157205 0.853852
v -0.553236 8.157205 0.768446
v -0.704135 8.157205 0.653510
v -0.827975 8.157205 0.513459
v -0.919997 8.157205 0.353676
v -0.976663 8.157205 0.180302
v -0.995797 8.157205 -0.000001
v -0.976663 8.157205 -0.180304
v -0.919996 8.157205 -0.353678
v -0.827974 8.157205 -0.513461
v -0.704134 8.157205 -0.653511
v -0.553234 8.157205 -0.768447
v -0.381074 8.157205 -0.853853
v -0.194269 8.157205 -0.906445
v -0.000002 3.235344 -0.924203
v 0.194268 3.235344 -0.906444
v 0.381073 3.235344 -0.853852
v 0.553233 3.235344 -0.768447
v 0.704133 3.235344 -0.653510
v 0.827973 3.235344 -0.513460
v 0.919994 3.235344 -0.353677
v 0.976661 3.235344 -0.180303
v 0.995795 3.235344 -0.000000
v 0.976661 3.235344 0.180303
v 0.919994 3.235344 0.353677
v 0.827973 3.235344 0.513460
v 0.704133 3.235344 0.653510
v 0.553233 3.235344 0.768447
v 0.381073 3.235344 0.853852
v 0.194268 3.235344 0.906445
v -0.000002 3.235344 0.924203
v -0.194273 3.235344 0.906445
v -0.381077 3.235344 0.853852
v -0.553238 3.235344 0.768446
v -0.704137 3.235344 0.653510
v -0.827977 3.235344 0.513459
v -0.919999 3.235344 0.353676
v -0.976665 3.235344 0.180302
v -0.995799 3.235344 -0.000001
v -0.976665 3.235344 -0.180304
v -0.919998 3.235344 -0.353678
v -0.827976 3.235344 -0.513461
v -0.704136 3.235344 -0.653511
v -0.553236 3.235344 -0.768447
v -0.381076 3.235344 -0.853853
v -0.194271 3.235344 -0.906445
v 0.019161 0.295374 -0.924203
v 0.238259 0.295374 -0.906444
v 0.448937 0.295374 -0.853852
v 0.643100 0.295374 -0.768447
v 0.813284 0.295374 -0.653510
v 0.952951 0.295374 -0.513460
v 1.056733 0.295374 -0.353677
v 1.120641 0.295374 -0.180303
v 1.142220 0.295374 -0.000000
v 1.120641 0.295374 0.180303
v 1.056733 0.295374 0.353677
v 0.952951 0.295374 0.513460
v 0.813284 0.295374 0.653510
v 0.643099 0.295374 0.768447
v 0.448937 0.295374 0.853852
v 0.238259 0.295374 0.906445
v 0.019161 0.295374 0.924203
v -0.199937 0.295374 0.906445
v -0.410616 0.295374 0.853852
v -0.604778 0.295374 0.768446
v -0.774962 0.295374 0.653510
v -0.914629 0.295374 0.513459
v -1.018411 0.295374 0.353676
v -1.082319 0.295374 0.180302
v -1.103899 0.295374 -0.000001
v -1.082319 0.295374 -0.180304
v -1.018410 0.295374 -0.353678
v -0.914628 0.295374 -0.513461
v -0.774961 0.295374 -0.653511
v -0.604776 0.295374 -0.768447
v -0.410614 0.295374 -0.853853
v -0.199935 0.295374 -0.906445
vn 0.0933 -0.3070 -0.9471
vn 0.2763 -0.3070 -0.9107
vn 0.4486 -0.3070 -0.8393
vn 0.6038 -0.3070 -0.7357
vn 0.7357 -0.3070 -0.6038
vn 0.8393 -0.3070 -0.4486
vn 0.9107 -0.3070 -0.2763
vn 0.9471 -0.3070 -0.0933
vn 0.9471 -0.3070 0.0933
vn 0.9107 -0.3070 0.2763
vn 0.8393 -0.3070 0.4486
vn 0.7357 -0.3070 0.6038
vn 0.6038 -0.3070 0.7357
vn 0.4486 -0.3070 0.8393
vn 0.2763 -0.3070 0.9107
vn 0.0933 -0.3070 0.9471
vn -0.0933 -0.3070 0.9471
vn -0.2763 -0.3070 0.9107
vn -0.4486 -0.3070 0.8393
vn -0.6038 -0.3070 0.7357
vn -0.5488 -0.4374 0.7124
vn -0.6516 -0.6613 0.3715
vn -0.6816 -0.6977 0.2205
vn -0.8290 -0.5043 -0.2416
vn -0.9471 -0.3070 -0.0933
vn -0.9107 -0.3070 -0.2763
vn -0.8393 -0.3070 -0.4486
vn -0.7357 -0.3070 -0.6038
vn -0.6038 -0.3070 -0.7357
vn -0.4486 -0.3070 -0.8393
vn 0.0000 1.0000 0.0000
vn -0.2763 -0.3070 -0.9107
vn -0.0933 -0.3070 -0.9471
vn 0.0000 -1.0000 -0.0000
vn -0.0980 0.0000 -0.9952
vn -0.2903 0.0000 -0.9569
vn -0.4714 0.0000 -0.8819
vn -0.6344 0.0000 -0.7730
vn -0.7730 0.0000 -0.6344
vn -0.8819 0.0000 -0.4714
vn -0.9569 0.0000 -0.2903
vn -0.9952 0.0000 -0.0980
vn -0.9952 0.0000 0.0980
vn -0.9569 0.0000 0.2903
vn -0.8819 0.0000 0.4714
vn -0.7730 0.0000 0.6344
vn -0.6344 0.0000 0.7730
vn -0.4714 0.0000 0.8819
vn -0.2903 0.0000 0.9569
vn -0.0980 0.0000 0.9952
vn 0.0980 0.0000 0.9952
vn 0.2903 0.0000 0.9569
vn 0.4714 0.0000 0.8819
vn 0.6344 0.0000 0.7730
vn 0.7730 0.0000 0.6344
vn 0.8819 0.0000 0.4714
vn 0.9569 0.0000 0.2903
vn 0.9952 0.0000 0.0980
vn 0.9952 0.0000 -0.0980
vn 0.9569 0.0000 -0.2903
vn 0.8819 0.0000 -0.4714
vn 0.7730 0.0000 -0.6344
vn 0.6344 0.0000 -0.7730
vn 0.4714 0.0000 -0.8819
vn 0.2903 0.0000 -0.9569
vn 0.0980 0.0000 -0.9952
vn -0.1553 0.9669 -0.2024
vn 0.0307 0.9428 0.3319
vn 0.5438 0.4543 -0.7056
vn 0.1858 0.9769 -0.1057
vn 0.1697 0.9840 -0.0548
vn 0.6801 0.6927 0.2401
vn -0.7492 0.1195 -0.6515
vn -0.2710 0.0000 -0.9626
vn 0.9517 0.0257 0.3059
vn -0.6030 0.1741 -0.7785
vn 0.8682 0.0670 0.4917
vn -0.4391 0.2221 -0.8706
vn -0.0890 0.2755 0.9572
vn 0.7492 0.1195 0.6515
vn -0.2660 0.2572 -0.9291
vn -0.2660 0.2572 0.9291
vn 0.6030 0.1741 0.7785
vn -0.0890 0.2755 -0.9572
vn -0.4391 0.2221 0.8706
vn 0.4391 0.2221 0.8706
vn 0.0890 0.2755 -0.9572
vn -0.6030 0.1741 0.7785
vn 0.2660 0.2572 0.9291
vn 0.2660 0.2572 -0.9291
vn -0.7492 0.1195 0.6515
vn 0.0890 0.2755 0.9572
vn 0.4391 0.2221 -0.8706
vn -0.8682 0.0670 0.4917
vn 0.6030 0.1741 -0.7785
vn -0.9517 0.0257 0.3059
vn 0.7492 0.1195 -0.6515
vn -0.9946 0.0029 0.1038
vn 0.8682 0.0670 -0.4917
vn -0.9946 0.0029 -0.1038
vn 0.9517 0.0257 -0.3059
vn -0.9517 0.0257 -0.3059
vn 0.9946 0.0029 -0.1038
vn -0.8682 0.0670 -0.4917
vn 0.9946 0.0029 0.1038
vn 0.2710 -0.0000 -0.9626
vn -0.2710 0.0000 0.9626
vn 0.6059 0.0000 0.7955
vn -0.0910 0.0000 -0.9958
vn -0.4444 0.0000 0.8958
vn 0.4444 0.0000 0.8958
vn 0.0910 0.0000 -0.9958
vn -0.6059 0.0000 0.7955
vn 0.2710 0.0000 0.9626
vn -0.7491 0.0000 0.6624
vn 0.0910 0.0000 0.9958
vn 0.4444 0.0000 -0.8958
vn -0.8666 0.0000 0.4991
vn 0.6059 0.0000 -0.7955
vn -0.9505 0.0000 0.3107
vn 0.7491 0.0000 -0.6624
vn -0.9944 0.0000 0.1055
vn 0.8666 0.0000 -0.4991
vn -0.9944 0.0000 -0.1055
vn 0.9505 0.0000 -0.3107
vn -0.9505 0.0000 -0.3107
vn 0.9944 0.0000 -0.1055
vn -0.8666 0.0000 -0.4991
vn 0.9944 0.0000 0.1055
vn -0.7491 0.0000 -0.6624
vn 0.9505 0.0000 0.3107
vn -0.6059 0.0000 -0.7955
vn 0.8666 0.0000 0.4991
vn -0.4444 0.0000 -0.8958
vn -0.0910 0.0000 0.9958
vn 0.7491 0.0000 0.6624
vn 0.7282 -0.0195 -0.6851
vn -0.9925 -0.0490 0.1121
vn 0.8524 -0.0268 -0.5223
vn -0.9925 -0.0490 -0.1121
vn 0.9440 -0.0328 -0.3283
vn -0.9436 -0.0450 -0.3281
vn 0.9930 -0.0361 -0.1121
vn -0.8521 -0.0379 -0.5221
vn 0.9930 -0.0361 0.1121
vn -0.7280 -0.0290 -0.6849
vn 0.9440 -0.0328 0.3283
vn -0.5820 -0.0197 -0.8129
vn 0.8524 -0.0268 0.5223
vn -0.4226 -0.0113 -0.9063
vn -0.0856 -0.0009 0.9963
vn 0.7282 -0.0195 0.6851
vn -0.2558 -0.0049 -0.9667
vn -0.2558 -0.0049 0.9667
vn 0.5821 -0.0121 0.8130
vn -0.0856 -0.0009 -0.9963
vn -0.4226 -0.0113 0.9063
vn 0.4226 -0.0058 0.9063
vn 0.0856 0.0002 -0.9963
vn -0.5820 -0.0197 0.8129
vn 0.2558 -0.0015 0.9667
vn 0.2558 -0.0015 -0.9667
vn -0.7280 -0.0290 0.6849
vn 0.0856 0.0002 0.9963
vn 0.4226 -0.0058 -0.9063
vn -0.8521 -0.0379 0.5221
vn 0.5821 -0.0121 -0.8130
vn -0.9436 -0.0450 0.3281
usemtl VIDRIO
s off
f 73//1 2//1 4//1 74//1
f 74//2 4//2 6//2 83//2
f 83//3 6//3 8//3 92//3
f 92//4 8//4 10//4 101//4
f 101//5 10//5 12//5 110//5
f 110//6 12//6 14//6 119//6
f 119//7 14//7 16//7 128//7
f 128//8 16//8 18//8 137//8
f 137//9 18//9 20//9 146//9
f 146//10 20//10 22//10 155//10
f 155//11 22//11 24//11 164//11
f 164//12 24//12 26//12 173//12
f 173//13 26//13 28//13 182//13
f 182//14 28//14 30//14 191//14
f 191//15 30//15 32//15 200//15
f 200//16 32//16 34//16 209//16
f 209//17 34//17 36//17 218//17
f 218//18 36//18 38//18 227//18
f 227//19 38//19 40//19 236//19
f 236//20 40//20 42//20 245//20
f 245//21 42//21 44//21 254//21
f 254//22 44//22 46//22 263//22
f 263//23 46//23 48//23 272//23
f 272//24 48//24 50//24 281//24
f 281//25 50//25 52//25 290//25
f 290//26 52//26 54//26 299//26
f 299//27 54//27 56//27 308//27
f 308//28 56//28 58//28 317//28
f 317//29 58//29 60//29 326//29
f 326//30 60//30 62//30 335//30
f 34//31 32//31 368//31 369//31
f 335//32 62//32 64//32 344//32
f 344//33 64//33 2//33 73//33
f 1//34 3//34 5//34 7//34 9//34 11//34 13//34 15//34 17//34 19//34 21//34 23//34 25//34 27//34 29//34 31//34 33//34 35//34 37//34 39//34 41//34 43//34 45//34 47//34 49//34 51//34 53//34 55//34 57//34 59//34 61//34 63//34
f 63//35 352//35 65//35 1//35
f 352//35 351//35 66//35 65//35
f 351//35 350//35 67//35 66//35
f 350//35 349//35 68//35 67//35
f 349//35 348//35 69//35 68//35
f 348//35 347//35 70//35 69//35
f 347//35 346//35 71//35 70//35
f 346//35 345//35 72//35 71//35
f 345//35 344//35 73//35 72//35
f 61//36 343//36 352//36 63//36
f 343//36 342//36 351//36 352//36
f 342//36 341//36 350//36 351//36
f 341//36 340//36 349//36 350//36
f 340//36 339//36 348//36 349//36
f 339//36 338//36 347//36 348//36
f 338//36 337//36 346//36 347//36
f 337//36 336//36 345//36 346//36
f 336//36 335//36 344//36 345//36
f 59//37 334//37 343//37 61//37
f 334//37 333//37 342//37 343//37
f 333//37 332//37 341//37 342//37
f 332//37 331//37 340//37 341//37
f 331//37 330//37 339//37 340//37
f 330//37 329//37 338//37 339//37
f 329//37 328//37 337//37 338//37
f 328//37 327//37 336//37 337//37
f 327//37 326//37 335//37 336//37
f 57//38 325//38 334//38 59//38
f 325//38 324//38 333//38 334//38
f 324//38 323//38 332//38 333//38
f 323//38 322//38 331//38 332//38
f 322//38 321//38 330//38 331//38
f 321//38 320//38 329//38 330//38
f 320//38 319//38 328//38 329//38
f 319//38 318//38 327//38 328//38
f 318//38 317//38 326//38 327//38
f 55//39 316//39 325//39 57//39
f 316//39 315//39 324//39 325//39
f 315//39 314//39 323//39 324//39
f 314//39 313//39 322//39 323//39
f 313//39 312//39 321//39 322//39
f 312//39 311//39 320//39 321//39
f 311//39 310//39 319//39 320//39
f 310//39 309//39 318//39 319//39
f 309//39 308//39 317//39 318//39
f 53//40 307//40 316//40 55//40
f 307//40 306//40 315//40 316//40
f 306//40 305//40 314//40 315//40
f 305//40 304//40 313//40 314//40
f 304//40 303//40 312//40 313//40
f 303//40 302//40 311//40 312//40
f 302//40 301//40 310//40 311//40
f 301//40 300//40 309//40 310//40
f 300//40 299//40 308//40 309//40
f 51//41 298//41 307//41 53//41
f 298//41 297//41 306//41 307//41
f 297//41 296//41 305//41 306//41
f 296//41 295//41 304//41 305//41
f 295//41 294//41 303//41 304//41
f 294//41 293//41 302//41 303//41
f 293//41 292//41 301//41 302//41
f 292//41 291//41 300//41 301//41
f 291//41 290//41 299//41 300//41
f 49//42 289//42 298//42 51//42
f 289//42 288//42 297//42 298//42
f 288//42 287//42 296//42 297//42
f 287//42 286//42 295//42 296//42
f 286//42 285//42 294//42 295//42
f 285//42 284//42 293//42 294//42
f 284//42 283//42 292//42 293//42
f 283//42 282//42 291//42 292//42
f 282//42 281//42 290//42 291//42
f 47//43 280//43 289//43 49//43
f 280//43 279//43 288//43 289//43
f 279//43 278//43 287//43 288//43
f 278//43 277//43 286//43 287//43
f 277//43 276//43 285//43 286//43
f 276//43 275//43 284//43 285//43
f 275//43 274//43 283//43 284//43
f 274//43 273//43 282//43 283//43
f 273//43 272//43 281//43 282//43
f 45//44 271//44 280//44 47//44
f 271//44 270//44 279//44 280//44
f 270//44 269//44 278//44 279//44
f 269//44 268//44 277//44 278//44
f 268//44 267//44 276//44 277//44
f 267//44 266//44 275//44 276//44
f 266//44 265//44 274//44 275//44
f 265//44 264//44 273//44 274//44
f 264//44 263//44 272//44 273//44
f 43//45 262//45 271//45 45//45
f 262//45 261//45 270//45 271//45
f 261//45 260//45 269//45 270//45
f 260//45 259//45 268//45 269//45
f 259//45 258//45 267//45 268//45
f 258//45 257//45 266//45 267//45
f 257//45 256//45 265//45 266//45
f 256//45 255//45 264//45 265//45
f 255//45 254//45 263//45 264//45
f 41//46 253//46 262//46 43//46
f 253//46 252//46 261//46 262//46
f 252//46 251//46 260//46 261//46
f 251//46 250//46 259//46 260//46
f 250//46 249//46 258//46 259//46
f 249//46 248//46 257//46 258//46
f 248//46 247//46 256//46 257//46
f 247//46 246//46 255//46 256//46
f 246//46 245//46 254//46 255//46
f 39//47 244//47 253//47 41//47
f 244//47 243//47 252//47 253//47
f 243//47 242//47 251//47 252//47
f 242//47 241//47 250//47 251//47
f 241//47 240//47 249//47 250//47
f 240//47 239//47 248//47 249//47
f 239//47 238//47 247//47 248//47
f 238//47 237//47 246//47 247//47
f 237//47 236//47 245//47 246//47
f 37//48 235//48 244//48 39//48
f 235//48 234//48 243//48 244//48
f 234//48 233//48 242//48 243//48
f 233//48 232//48 241//48 242//48
f 232//48 231//48 240//48 241//48
f 231//48 230//48 239//48 240//48
f 230//48 229//48 238//48 239//48
f 229//48 228//48 237//48 238//48
f 228//48 227//48 236//48 237//48
f 35//49 226//49 235//49 37//49
f 226//49 225//49 234//49 235//49
f 225//49 224//49 233//49 234//49
f 224//49 223//49 232//49 233//49
f 223//49 222//49 231//49 232//49
f 222//49 221//49 230//49 231//49
f 221//49 220//49 229//49 230//49
f 220//49 219//49 228//49 229//49
f 219//49 218//49 227//49 228//49
f 33//50 217//50 226//50 35//50
f 217//50 216//50 225//50 226//50
f 216//50 215//50 224//50 225//50
f 215//50 214//50 223//50 224//50
f 214//50 213//50 222//50 223//50
f 213//50 212//50 221//50 222//50
f 212//50 211//50 220//50 221//50
f 211//50 210//50 219//50 220//50
f 210//50 209//50 218//50 219//50
f 31//51 208//51 217//51 33//51
f 208//51 207//51 216//51 217//51
f 207//51 206//51 215//51 216//51
f 206//51 205//51 214//51 215//51
f 205//51 204//51 213//51 214//51
f 204//51 203//51 212//51 213//51
f 203//51 202//51 211//51 212//51
f 202//51 201//51 210//51 211//51
f 201//51 200//51 209//51 210//51
f 29//52 199//52 208//52 31//52
f 199//52 198//52 207//52 208//52
f 198//52 197//52 206//52 207//52
f 197//52 196//52 205//52 206//52
f 196//52 195//52 204//52 205//52
f 195//52 194//52 203//52 204//52
f 194//52 193//52 202//52 203//52
f 193//52 192//52 201//52 202//52
f 192//52 191//52 200//52 201//52
f 27//53 190//53 199//53 29//53
f 190//53 189//53 198//53 199//53
f 189//53 188//53 197//53 198//53
f 188//53 187//53 196//53 197//53
f 187//53 186//53 195//53 196//53
f 186//53 185//53 194//53 195//53
f 185//53 184//53 193//53 194//53
f 184//53 183//53 192//53 193//53
f 183//53 182//53 191//53 192//53
f 25//54 181//54 190//54 27//54
f 181//54 180//54 189//54 190//54
f 180//54 179//54 188//54 189//54
f 179//54 178//54 187//54 188//54
f 178//54 177//54 186//54 187//54
f 177//54 176//54 185//54 186//54
f 176//54 175//54 184//54 185//54
f 175//54 174//54 183//54 184//54
f 174//54 173//54 182//54 183//54
f 23//55 172//55 181//55 25//55
f 172//55 171//55 180//55 181//55
f 171//55 170//55 179//55 180//55
f 170//55 169//55 178//55 179//55
f 169//55 168//55 177//55 178//55
f 168//55 167//55 176//55 177//55
f 167//55 166//55 175//55 176//55
f 166//55 165//55 174//55 175//55
f 165//55 164//55 173//55 174//55
f 21//56 163//56 172//56 23//56
f 163//56 162//56 171//56 172//56
f 162//56 161//56 170//56 171//56
f 161//56 160//56 169//56 170//56
f 160//56 159//56 168//56 169//56
f 159//56 158//56 167//56 168//56
f 158//56 157//56 166//56 167//56
f 157//56 156//56 165//56 166//56
f 156//56 155//56 164//56 165//56
f 19//57 154//57 163//57 21//57
f 154//57 153//57 162//57 163//57
f 153//57 152//57 161//57 162//57
f 152//57 151//57 160//57 161//57
f 151//57 150//57 159//57 160//57
f 150//57 149//57 158//57 159//57
f 149//57 148//57 157//57 158//57
f 148//57 147//57 156//57 157//57
f 147//57 146//57 155//57 156//57
f 17//58 145//58 154//58 19//58
f 145//58 144//58 153//58 154//58
f 144//58 143//58 152//58 153//58
f 143//58 142//58 151//58 152//58
f 142//58 141//58 150//58 151//58
f 141//58 140//58 149//58 150//58
f 140//58 139//58 148//58 149//58
f 139//58 138//58 147//58 148//58
f 138//58 137//58 146//58 147//58
f 15//59 136//59 145//59 17//59
f 136//59 135//59 144//59 145//59
f 135//59 134//59 143//59 144//59
f 134//59 133//59 142//59 143//59
f 133//59 132//59 141//59 142//59
f 132//59 131//59 140//59 141//59
f 131//59 130//59 139//59 140//59
f 130//59 129//59 138//59 139//59
f 129//59 128//59 137//59 138//59
f 13//60 127//60 136//60 15//60
f 127//60 126//60 135//60 136//60
f 126//60 125//60 134//60 135//60
f 125//60 124//60 133//60 134//60
f 124//60 123//60 132//60 133//60
f 123//60 122//60 131//60 132//60
f 122//60 121//60 130//60 131//60
f 121//60 120//60 129//60 130//60
f 120//60 119//60 128//60 129//60
f 11//61 118//61 127//61 13//61
f 118//61 117//61 126//61 127//61
f 117//61 116//61 125//61 126//61
f 116//61 115//61 124//61 125//61
f 115//61 114//61 123//61 124//61
f 114//61 113//61 122//61 123//61
f 113//61 112//61 121//61 122//61
f 112//61 111//61 120//61 121//61
f 111//61 110//61 119//61 120//61
f 9//62 109//62 118//62 11//62
f 109//62 108//62 117//62 118//62
f 108//62 107//62 116//62 117//62
f 107//62 106//62 115//62 116//62
f 106//62 105//62 114//62 115//62
f 105//62 104//62 113//62 114//62
f 104//62 103//62 112//62 113//62
f 103//62 102//62 111//62 112//62
f 102//62 101//62 110//62 111//62
f 7//63 100//63 109//63 9//63
f 100//63 99//63 108//63 109//63
f 99//63 98//63 107//63 108//63
f 98//63 97//63 106//63 107//63
f 97//63 96//63 105//63 106//63
f 96//63 95//63 104//63 105//63
f 95//63 94//63 103//63 104//63
f 94//63 93//63 102//63 103//63
f 93//63 92//63 101//63 102//63
f 5//64 91//64 100//64 7//64
f 91//64 90//64 99//64 100//64
f 90//64 89//64 98//64 99//64
f 89//64 88//64 97//64 98//64
f 88//64 87//64 96//64 97//64
f 87//64 86//64 95//64 96//64
f 86//64 85//64 94//64 95//64
f 85//64 84//64 93//64 94//64
f 84//64 83//64 92//64 93//64
f 3//65 82//65 91//65 5//65
f 82//65 81//65 90//65 91//65
f 81//65 80//65 89//65 90//65
f 80//65 79//65 88//65 89//65
f 79//65 78//65 87//65 88//65
f 78//65 77//65 86//65 87//65
f 77//65 76//65 85//65 86//65
f 76//65 75//65 84//65 85//65
f 75//65 74//65 83//65 84//65
f 1//66 65//66 82//66 3//66
f 65//66 66//66 81//66 82//66
f 66//66 67//66 80//66 81//66
f 67//66 68//66 79//66 80//66
f 68//66 69//66 78//66 79//66
f 69//66 70//66 77//66 78//66
f 70//66 71//66 76//66 77//66
f 71//66 72//66 75//66 76//66
f 72//66 73//66 74//66 75//66
f 359//45 358//45 390//45 391//45
f 52//31 50//31 377//31 378//31
f 8//31 6//31 355//31 356//31
f 26//31 24//31 364//31 365//31
f 44//67 42//67 373//67 374//67
f 62//31 60//31 382//31 383//31
f 18//31 16//31 360//31 361//31
f 36//31 34//31 369//31 370//31
f 54//31 52//31 378//31 379//31
f 10//31 8//31 356//31 357//31
f 28//31 26//31 365//31 366//31
f 46//31 44//31 374//31 375//31
f 64//31 62//31 383//31 384//31
f 20//31 18//31 361//31 362//31
f 38//31 36//31 370//31 371//31
f 56//31 54//31 379//31 380//31
f 12//31 10//31 357//31 358//31
f 30//31 28//31 366//31 367//31
f 48//31 46//31 375//31 376//31
f 4//31 2//31 353//31 354//31
f 2//31 64//31 384//31 353//31
f 22//31 20//31 362//31 363//31
f 40//31 38//31 371//31 372//31
f 58//31 56//31 380//31 381//31
f 14//31 12//31 358//31 359//31
f 32//31 30//31 367//31 368//31
f 50//68 48//68 376//68 377//68
f 6//31 4//31 354//31 355//31
f 24//31 22//31 363//31 364//31
f 42//31 40//31 372//31 373//31
f 60//31 58//31 381//31 382//31
f 16//31 14//31 359//31 360//31
f 394//31 393//31 425//31 426//31
f 373//63 372//63 404//63 405//63
f 360//44 359//44 391//44 392//44
f 374//69 373//69 405//69 406//69
f 361//43 360//43 392//43 393//43
f 375//70 374//70 406//70 407//70
f 362//42 361//42 393//42 394//42
f 376//71 375//71 407//71 408//71
f 363//41 362//41 394//41 395//41
f 377//72 376//72 408//72 409//72
f 364//40 363//40 395//40 396//40
f 378//58 377//58 409//58 410//58
f 365//39 364//39 396//39 397//39
f 379//57 378//57 410//57 411//57
f 366//38 365//38 397//38 398//38
f 380//56 379//56 411//56 412//56
f 367//37 366//37 398//37 399//37
f 354//50 353//50 385//50 386//50
f 381//55 380//55 412//55 413//55
f 368//36 367//36 399//36 400//36
f 355//49 354//49 386//49 387//49
f 382//54 381//54 413//54 414//54
f 369//35 368//35 400//35 401//35
f 356//48 355//48 387//48 388//48
f 383//53 382//53 414//53 415//53
f 370//66 369//66 401//66 402//66
f 357//47 356//47 388//47 389//47
f 384//52 383//52 415//52 416//52
f 371//65 370//65 402//65 403//65
f 358//46 357//46 389//46 390//46
f 353//51 384//51 416//51 385//51
f 372//64 371//64 403//64 404//64
f 429//73 428//73 460//73 461//73
f 408//31 407//31 439//31 440//31
f 395//31 394//31 426//31 427//31
f 409//31 408//31 440//31 441//31
f 396//31 395//31 427//31 428//31
f 410//31 409//31 441//31 442//31
f 397//31 396//31 428//31 429//31
f 411//31 410//31 442//31 443//31
f 398//31 397//31 429//31 430//31
f 412//31 411//31 443//31 444//31
f 399//31 398//31 430//31 431//31
f 386//31 385//31 417//31 418//31
f 413//31 412//31 444//31 445//31
f 400//31 399//31 431//31 432//31
f 387//31 386//31 418//31 419//31
f 414//31 413//31 445//31 446//31
f 401//31 400//31 432//31 433//31
f 388//31 387//31 419//31 420//31
f 415//31 414//31 446//31 447//31
f 402//31 401//31 433//31 434//31
f 389//31 388//31 420//31 421//31
f 416//31 415//31 447//31 448//31
f 403//31 402//31 434//31 435//31
f 390//31 389//31 421//31 422//31
f 385//31 416//31 448//31 417//31
f 404//31 403//31 435//31 436//31
f 391//31 390//31 422//31 423//31
f 405//31 404//31 436//31 437//31
f 392//31 391//31 423//31 424//31
f 406//31 405//31 437//31 438//31
f 393//31 392//31 424//31 425//31
f 407//31 406//31 438//31 439//31
f 464//74 463//74 495//74 496//74
f 443//75 442//75 474//75 475//75
f 430//76 429//76 461//76 462//76
f 444//77 443//77 475//77 476//77
f 431//78 430//78 462//78 463//78
f 418//79 417//79 449//79 450//79
f 445//80 444//80 476//80 477//80
f 432//81 431//81 463//81 464//81
f 419//82 418//82 450//82 451//82
f 446//83 445//83 477//83 478//83
f 433//84 432//84 464//84 465//84
f 420//85 419//85 451//85 452//85
f 447//86 446//86 478//86 479//86
f 434//87 433//87 465//87 466//87
f 421//88 420//88 452//88 453//88
f 448//89 447//89 479//89 480//89
f 435//90 434//90 466//90 467//90
f 422//91 421//91 453//91 454//91
f 417//92 448//92 480//92 449//92
f 436//93 435//93 467//93 468//93
f 423//94 422//94 454//94 455//94
f 437//95 436//95 468//95 469//95
f 424//96 423//96 455//96 456//96
f 438//97 437//97 469//97 470//97
f 425//98 424//98 456//98 457//98
f 439//99 438//99 470//99 471//99
f 426//100 425//100 457//100 458//100
f 440//101 439//101 471//101 472//101
f 427//102 426//102 458//102 459//102
f 441//103 440//103 472//103 473//103
f 428//104 427//104 459//104 460//104
f 442//105 441//105 473//105 474//105
f 499//106 498//106 530//106 531//106
f 451//107 450//107 482//107 483//107
f 478//108 477//108 509//108 510//108
f 465//109 464//109 496//109 497//109
f 452//110 451//110 483//110 484//110
f 479//111 478//111 510//111 511//111
f 466//112 465//112 497//112 498//112
f 453//113 452//113 484//113 485//113
f 480//114 479//114 511//114 512//114
f 467//106 466//106 498//106 499//106
f 454//115 453//115 485//115 486//115
f 449//116 480//116 512//116 481//116
f 468//117 467//117 499//117 500//117
f 455//118 454//118 486//118 487//118
f 469//119 468//119 500//119 501//119
f 456//120 455//120 487//120 488//120
f 470//121 469//121 501//121 502//121
f 457//122 456//122 488//122 489//122
f 471//123 470//123 502//123 503//123
f 458//124 457//124 489//124 490//124
f 472//125 471//125 503//125 504//125
f 459//126 458//126 490//126 491//126
f 473//127 472//127 504//127 505//127
f 460//128 459//128 491//128 492//128
f 474//129 473//129 505//129 506//129
f 461//130 460//130 492//130 493//130
f 475//131 474//131 506//131 507//131
f 462//132 461//132 493//132 494//132
f 476//133 475//133 507//133 508//133
f 463//134 462//134 494//134 495//134
f 450//135 449//135 481//135 482//135
f 477//136 476//136 508//136 509//136
f 534//137 533//137 565//137 566//137
f 486//115 485//115 517//115 518//115
f 481//116 512//116 544//116 513//116
f 500//117 499//117 531//117 532//117
f 487//118 486//118 518//118 519//118
f 501//119 500//119 532//119 533//119
f 488//120 487//120 519//120 520//120
f 502//121 501//121 533//121 534//121
f 489//122 488//122 520//122 521//122
f 503//123 502//123 534//123 535//123
f 490//124 489//124 521//124 522//124
f 504//125 503//125 535//125 536//125
f 491//126 490//126 522//126 523//126
f 505//127 504//127 536//127 537//127
f 492//128 491//128 523//128 524//128
f 506//129 505//129 537//129 538//129
f 493//130 492//130 524//130 525//130
f 507//131 506//131 538//131 539//131
f 494//132 493//132 525//132 526//132
f 508//133 507//133 539//133 540//133
f 495//134 494//134 526//134 527//134
f 482//135 481//135 513//135 514//135
f 509//136 508//136 540//136 541//136
f 496//74 495//74 527//74 528//74
f 483//107 482//107 514//107 515//107
f 510//108 509//108 541//108 542//108
f 497//109 496//109 528//109 529//109
f 484//110 483//110 515//110 516//110
f 511//111 510//111 542//111 543//111
f 498//112 497//112 529//112 530//112
f 485//113 484//113 516//113 517//113
f 512//114 511//114 543//114 544//114
f 546//31 545//31 576//31 575//31 574//31 573//31 572//31 571//31 570//31 569//31 568//31 567//31 566//31 565//31 564//31 563//31 562//31 561//31 560//31 559//31 558//31 557//31 556//31 555//31 554//31 553//31 552//31 551//31 550//31 549//31 548//31 547//31
f 521//138 520//138 552//138 553//138
f 535//139 534//139 566//139 567//139
f 522//140 521//140 553//140 554//140
f 536//141 535//141 567//141 568//141
f 523//142 522//142 554//142 555//142
f 537//143 536//143 568//143 569//143
f 524//144 523//144 555//144 556//144
f 538//145 537//145 569//145 570//145
f 525//146 524//146 556//146 557//146
f 539//147 538//147 570//147 571//147
f 526//148 525//148 557//148 558//148
f 540//149 539//149 571//149 572//149
f 527//150 526//150 558//150 559//150
f 514//151 513//151 545//151 546//151
f 541//152 540//152 572//152 573//152
f 528//153 527//153 559//153 560//153
f 515//154 514//154 546//154 547//154
f 542//155 541//155 573//155 574//155
f 529//156 528//156 560//156 561//156
f 516//157 515//157 547//157 548//157
f 543//158 542//158 574//158 575//158
f 530//159 529//159 561//159 562//159
f 517//160 516//160 548//160 549//160
f 544//161 543//161 575//161 576//161
f 531//162 530//162 562//162 563//162
f 518//163 517//163 549//163 550//163
f 513//164 544//164 576//164 545//164
f 532//165 531//165 563//165 564//165
f 519//166 518//166 550//166 551//166
f 533//167 532//167 564//167 565//167
f 520//168 519//168 551//168 552//168
o Cylinder
v 0.000000 -0.246116 -2.464135
v 0.000000 0.246116 -2.464135
v 0.480729 -0.246116 -2.416787
v 0.480729 0.246116 -2.416787
v 0.942984 -0.246116 -2.276564
v 0.942984 0.246116 -2.276564
v 1.369000 -0.246116 -2.048853
v 1.369000 0.246116 -2.048853
v 1.742406 -0.246116 -1.742406
v 1.742406 0.246116 -1.742406
v 2.048853 -0.246116 -1.369000
v 2.048853 0.246116 -1.369000
v 2.276564 -0.246116 -0.942984
v 2.276564 0.246116 -0.942984
v 2.416787 -0.246116 -0.480729
v 2.416787 0.246116 -0.480729
v 2.464135 -0.246116 -0.000000
v 2.464135 0.246116 -0.000000
v 2.416787 -0.246116 0.480729
v 2.416787 0.246116 0.480729
v 2.276564 -0.246116 0.942983
v 2.276564 0.246116 0.942983
v 2.048853 -0.246116 1.369000
v 2.048853 0.246116 1.369000
v 1.742406 -0.246116 1.742406
v 1.742406 0.246116 1.742406
v 1.369000 -0.246116 2.048853
v 1.369000 0.246116 2.048853
v 0.942983 -0.246116 2.276564
v 0.942983 0.246116 2.276564
v 0.480728 -0.246116 2.416787
v 0.480728 0.246116 2.416787
v -0.000001 -0.246116 2.464135
v -0.000001 0.246116 2.464135
v -0.480730 -0.246116 2.416787
v -0.480730 0.246116 2.416787
v -0.942985 -0.246116 2.276563
v -0.942985 0.246116 2.276563
v -1.369001 -0.246116 2.048852
v -1.369001 0.246116 2.048852
v -1.742407 -0.246116 1.742405
v -1.742407 0.246116 1.742405
v -2.048854 -0.246116 1.368998
v -2.048854 0.246116 1.368998
v -2.276564 -0.246116 0.942982
v -2.276564 0.246116 0.942982
v -2.416787 -0.246116 0.480727
v -2.416787 0.246116 0.480727
v -2.464135 -0.246116 -0.000002
v -2.464135 0.246116 -0.000002
v -2.416786 -0.246116 -0.480731
v -2.416786 0.246116 -0.480731
v -2.276562 -0.246116 -0.942986
v -2.276562 0.246116 -0.942986
v -2.048851 -0.246116 -1.369002
v -2.048851 0.246116 -1.369002
v -1.742404 -0.246116 -1.742409
v -1.742404 0.246116 -1.742409
v -1.368997 -0.246116 -2.048855
v -1.368997 0.246116 -2.048855
v -0.942980 -0.246116 -2.276565
v -0.942980 0.246116 -2.276565
v -0.480725 -0.246116 -2.416788
v -0.480725 0.246116 -2.416788
vn 0.0980 0.0000 -0.9952
vn 0.2903 0.0000 -0.9569
vn 0.4714 0.0000 -0.8819
vn 0.6344 0.0000 -0.7730
vn 0.7730 0.0000 -0.6344
vn 0.8819 0.0000 -0.4714
vn 0.9569 0.0000 -0.2903
vn 0.9952 0.0000 -0.0980
vn 0.9952 0.0000 0.0980
vn 0.9569 0.0000 0.2903
vn 0.8819 0.0000 0.4714
vn 0.7730 0.0000 0.6344
vn 0.6344 0.0000 0.7730
vn 0.4714 0.0000 0.8819
vn 0.2903 0.0000 0.9569
vn 0.0980 0.0000 0.9952
vn -0.0980 0.0000 0.9952
vn -0.2903 0.0000 0.9569
vn -0.4714 0.0000 0.8819
vn -0.6344 0.0000 0.7730
vn -0.7730 0.0000 0.6344
vn -0.8819 0.0000 0.4714
vn -0.9569 0.0000 0.2903
vn -0.9952 0.0000 0.0980
vn -0.9952 0.0000 -0.0980
vn -0.9569 0.0000 -0.2903
vn -0.8819 0.0000 -0.4714
vn -0.7730 0.0000 -0.6344
vn -0.6344 0.0000 -0.7730
vn -0.4714 0.0000 -0.8819
vn 0.0000 1.0000 -0.0000
vn -0.2903 0.0000 -0.9569
vn -0.0980 0.0000 -0.9952
vn 0.0000 -1.0000 -0.0000
usemtl Material
s off
f 577//169 578//169 580//169 579//169
f 579//170 580//170 582//170 581//170
f 581//171 582//171 584//171 583//171
f 583//172 584//172 586//172 585//172
f 585//173 586//173 588//173 587//173
f 587//174 588//174 590//174 589//174
f 589//175 590//175 592//175 591//175
f 591//176 592//176 594//176 593//176
f 593//177 594//177 596//177 595//177
f 595//178 596//178 598//178 597//178
f 597//179 598//179 600//179 599//179
f 599//180 600//180 602//180 601//180
f 601//181 602//181 604//181 603//181
f 603//182 604//182 606//182 605//182
f 605//183 606//183 608//183 607//183
f 607//184 608//184 610//184 609//184
f 609//185 610//185 612//185 611//185
f 611//186 612//186 614//186 613//186
f 613//187 614//187 616//187 615//187
f 615//188 616//188 618//188 617//188
f 617//189 618//189 620//189 619//189
f 619//190 620//190 622//190 621//190
f 621//191 622//191 624//191 623//191
f 623//192 624//192 626//192 625//192
f 625//193 626//193 628//193 627//193
f 627//194 628//194 630//194 629//194
f 629//195 630//195 632//195 631//195
f 631//196 632//196 634//196 633//196
f 633//197 634//197 636//197 635//197
f 635//198 636//198 638//198 637//198
f 580//199 578//199 640//199 638//199 636//199 634//199 632//199 630//199 628//199 626//199 624//199 622//199 620//199 618//199 616//199 614//199 612//199 610//199 608//199 606//199 604//199 602//199 600//199 598//199 596//199 594//199 592//199 590//199 588//199 586//199 584//199 582//199
f 637//200 638//200 640//200 639//200
f 639//201 640//201 578//201 577//201
f 577//202 579//202 581//202 583//202 585//202 587//202 589//202 591//202 593//202 595//202 597//202 599//202 601//202 603//202 605//202 607//202 609//202 611//202 613//202 615//202 617//202 619//202 621//202 623//202 625//202 627//202 629//202 631//202 633//202 635//202 637//202 639//202
